%YAML 1.1
%TAG !u! tag:unity3d.com,2011:
--- !u!114 &11400000
MonoBehaviour:
  m_ObjectHideFlags: 0
  m_CorrespondingSourceObject: {fileID: 0}
  m_PrefabInstance: {fileID: 0}
  m_PrefabAsset: {fileID: 0}
  m_GameObject: {fileID: 0}
  m_Enabled: 1
  m_EditorHideFlags: 0
  m_Script: {fileID: 11500000, guid: fed572148c4ffb74dac6c9c1e62b1b82, type: 3}
  m_Name: Helmet
  m_EditorClassIdentifier: 
  name: Helmet
  icon: {fileID: 21300000, guid: 5b650fd2b97bca448b0e309de197547d, type: 3}
  isDefaultItem: 0
  equipSlot: 0
  armorModifier: 0
  damageModifier: 0
  mesh: {fileID: 8019989892239496003, guid: e80c00dd33101da46ae6a52849d3ac7b, type: 3}
  coveredMeshRegions: 
