%YAML 1.1
%TAG !u! tag:unity3d.com,2011:
--- !u!319 &31900000
AvatarMask:
  m_ObjectHideFlags: 0
  m_CorrespondingSourceObject: {fileID: 0}
  m_PrefabInstance: {fileID: 0}
  m_PrefabAsset: {fileID: 0}
  m_Name: Right Hand
  m_Mask: 00000000000000000000000000000000000000000000000000000000000000000100000000000000000000000000000000000000
  m_Elements:
  - m_Path: 
    m_Weight: 1
  - m_Path: Armature
    m_Weight: 1
  - m_Path: Armature/Hips
    m_Weight: 1
  - m_Path: Armature/Hips/Spine
    m_Weight: 1
  - m_Path: Armature/Hips/Spine/Chest
    m_Weight: 1
  - m_Path: Armature/Hips/Spine/Chest/Neck
    m_Weight: 1
  - m_Path: Armature/Hips/Spine/Chest/Neck/Head
    m_Weight: 1
  - m_Path: Armature/Hips/Spine/Chest/Neck/Head/Head_end
    m_Weight: 1
  - m_Path: Armature/Hips/Spine/Chest/Shoulder.L
    m_Weight: 1
  - m_Path: Armature/Hips/Spine/Chest/Shoulder.L/Upper Arm.L
    m_Weight: 1
  - m_Path: Armature/Hips/Spine/Chest/Shoulder.L/Upper Arm.L/Lower Arm.L
    m_Weight: 1
  - m_Path: Armature/Hips/Spine/Chest/Shoulder.L/Upper Arm.L/Lower Arm.L/Hand.L
    m_Weight: 1
  - m_Path: Armature/Hips/Spine/Chest/Shoulder.L/Upper Arm.L/Lower Arm.L/Hand.L/Fingers01.L
    m_Weight: 1
  - m_Path: Armature/Hips/Spine/Chest/Shoulder.L/Upper Arm.L/Lower Arm.L/Hand.L/Fingers01.L/Fingers02.L
    m_Weight: 1
  - m_Path: Armature/Hips/Spine/Chest/Shoulder.L/Upper Arm.L/Lower Arm.L/Hand.L/Fingers01.L/Fingers02.L/Fingers02.L_end
    m_Weight: 1
  - m_Path: Armature/Hips/Spine/Chest/Shoulder.L/Upper Arm.L/Lower Arm.L/Hand.L/Hand
      Hold.L
    m_Weight: 1
  - m_Path: Armature/Hips/Spine/Chest/Shoulder.L/Upper Arm.L/Lower Arm.L/Hand.L/Hand
      Hold.L/Hand Hold.L_end
    m_Weight: 1
  - m_Path: Armature/Hips/Spine/Chest/Shoulder.L/Upper Arm.L/Lower Arm.L/Hand.L/Hand
      Hold.L/Shield
    m_Weight: 1
  - m_Path: Armature/Hips/Spine/Chest/Shoulder.L/Upper Arm.L/Lower Arm.L/Hand.L/Thumb01.L
    m_Weight: 1
  - m_Path: Armature/Hips/Spine/Chest/Shoulder.L/Upper Arm.L/Lower Arm.L/Hand.L/Thumb01.L/Thumb02.L
    m_Weight: 1
  - m_Path: Armature/Hips/Spine/Chest/Shoulder.L/Upper Arm.L/Lower Arm.L/Hand.L/Thumb01.L/Thumb02.L/Thumb02.L_end
    m_Weight: 1
  - m_Path: Armature/Hips/Spine/Chest/Shoulder.R
    m_Weight: 1
  - m_Path: Armature/Hips/Spine/Chest/Shoulder.R/Upper Arm.R
    m_Weight: 1
  - m_Path: Armature/Hips/Spine/Chest/Shoulder.R/Upper Arm.R/Lower Arm.R
    m_Weight: 1
  - m_Path: Armature/Hips/Spine/Chest/Shoulder.R/Upper Arm.R/Lower Arm.R/Hand.R
    m_Weight: 1
  - m_Path: Armature/Hips/Spine/Chest/Shoulder.R/Upper Arm.R/Lower Arm.R/Hand.R/Fingers01.R
    m_Weight: 1
  - m_Path: Armature/Hips/Spine/Chest/Shoulder.R/Upper Arm.R/Lower Arm.R/Hand.R/Fingers01.R/Fingers02.R
    m_Weight: 1
  - m_Path: Armature/Hips/Spine/Chest/Shoulder.R/Upper Arm.R/Lower Arm.R/Hand.R/Fingers01.R/Fingers02.R/Fingers02.R_end
    m_Weight: 1
  - m_Path: Armature/Hips/Spine/Chest/Shoulder.R/Upper Arm.R/Lower Arm.R/Hand.R/Hand
      Hold.R
    m_Weight: 1
  - m_Path: Armature/Hips/Spine/Chest/Shoulder.R/Upper Arm.R/Lower Arm.R/Hand.R/Hand
      Hold.R/Hand Hold.R_end
    m_Weight: 1
  - m_Path: Armature/Hips/Spine/Chest/Shoulder.R/Upper Arm.R/Lower Arm.R/Hand.R/Hand
      Hold.R/Sword
    m_Weight: 1
  - m_Path: Armature/Hips/Spine/Chest/Shoulder.R/Upper Arm.R/Lower Arm.R/Hand.R/Thumb01.R
    m_Weight: 1
  - m_Path: Armature/Hips/Spine/Chest/Shoulder.R/Upper Arm.R/Lower Arm.R/Hand.R/Thumb01.R/Thumb02.R
    m_Weight: 1
  - m_Path: Armature/Hips/Spine/Chest/Shoulder.R/Upper Arm.R/Lower Arm.R/Hand.R/Thumb01.R/Thumb02.R/Thumb02.R_end
    m_Weight: 1
  - m_Path: Armature/Hips/Upper Leg.L
    m_Weight: 1
  - m_Path: Armature/Hips/Upper Leg.L/Lower Leg.L
    m_Weight: 1
  - m_Path: Armature/Hips/Upper Leg.L/Lower Leg.L/Foot.L
    m_Weight: 1
  - m_Path: Armature/Hips/Upper Leg.L/Lower Leg.L/Foot.L/Toes.L
    m_Weight: 1
  - m_Path: Armature/Hips/Upper Leg.L/Lower Leg.L/Foot.L/Toes.L/Toes.L_end
    m_Weight: 1
  - m_Path: Armature/Hips/Upper Leg.R
    m_Weight: 1
  - m_Path: Armature/Hips/Upper Leg.R/Lower Leg.R
    m_Weight: 1
  - m_Path: Armature/Hips/Upper Leg.R/Lower Leg.R/Foot.R
    m_Weight: 1
  - m_Path: Armature/Hips/Upper Leg.R/Lower Leg.R/Foot.R/Toes.R
    m_Weight: 1
  - m_Path: Armature/Hips/Upper Leg.R/Lower Leg.R/Foot.R/Toes.R/Toes.R_end
    m_Weight: 1
  - m_Path: Armature/Leg IK.L
    m_Weight: 1
  - m_Path: Armature/Leg IK.L/Leg IK.L_end
    m_Weight: 1
  - m_Path: Armature/Leg IK.R
    m_Weight: 1
  - m_Path: Armature/Leg IK.R/Leg IK.R_end
    m_Weight: 1
  - m_Path: Armature/Pole Target.L
    m_Weight: 1
  - m_Path: Armature/Pole Target.L/Pole Target.L_end
    m_Weight: 1
  - m_Path: Armature/Pole Target.R
    m_Weight: 1
  - m_Path: Armature/Pole Target.R/Pole Target.R_end
    m_Weight: 1
  - m_Path: Body
    m_Weight: 1
  - m_Path: Hair
    m_Weight: 1
  - m_Path: Helmet
    m_Weight: 1
  - m_Path: Pants
    m_Weight: 1
  - m_Path: Platebody
    m_Weight: 1
  - m_Path: Platelegs
    m_Weight: 1
  - m_Path: Shirt
    m_Weight: 1
  - m_Path: Shoes
    m_Weight: 1
